{
  "count": 200,
  "next": "https://cryptopanic.com/api/v1/posts/?auth_token=23049df32a525f4a2b17d3a8d15b6c94f8d1ffc3&public=true&currencies=BTC&approved=true&page=7",
  "previous": "https://cryptopanic.com/api/v1/posts/?auth_token=23049df32a525f4a2b17d3a8d15b6c94f8d1ffc3&public=true&currencies=BTC&approved=true&page=5",
  "results": [
    {
      "kind": "news",
      "domain": "square.binance.com",
      "source": {
        "title": "Binance Square",
        "region": "en",
        "domain": "square.binance.com",
        "path": null,
        "type": "feed",
        "url": "https://cryptopanic.com/news/external/3334323435382D3231353332393938/?mtm_campaign=API-OFA"
      },
      "title": "Bitdeer Reports Increase in Bitcoin Holdings",
      "published_at": "2025-05-03T08:13:47Z",
      "slug": "Bitdeer-Reports-Increase-in-Bitcoin-Holdings",
      "currencies": [
        {
          "code": "BTC",
          "title": "Bitcoin",
          "slug": "bitcoin",
          "url": "https://cryptopanic.com/news/bitcoin/"
        }
      ],
      "id": 21532998,
      "url": "https://cryptopanic.com/news/21532998/Bitdeer-Reports-Increase-in-Bitcoin-Holdings?mtm_campaign=API-OFA",
      "created_at": "2025-05-03T08:13:47Z",
      "votes": {
        "negative": 0,
        "positive": 0,
        "important": 0,
        "liked": 0,
        "disliked": 0,
        "lol": 0,
        "toxic": 0,
        "saved": 0,
        "comments": 0
      }
    },
    {
      "kind": "news",
      "domain": "coindoo.com",
      "source": {
        "title": "Coindoo.com",
        "region": "en",
        "domain": "coindoo.com",
        "path": null,
        "type": "feed",
        "url": "https://cryptopanic.com/news/external/3334323435382D3231353331343736/?mtm_campaign=API-OFA"
      },
      "title": "How to Measure True Bitcoin Exposure in Stocks Like MSTR",
      "published_at": "2025-05-03T08:00:58Z",
      "slug": "How-to-Measure-True-Bitcoin-Exposure-in-Stocks-Like-MSTR",
      "currencies": [
        {
          "code": "BTC",
          "title": "Bitcoin",
          "slug": "bitcoin",
          "url": "https://cryptopanic.com/news/bitcoin/"
        }
      ],
      "id": 21531476,
      "url": "https://cryptopanic.com/news/21531476/How-to-Measure-True-Bitcoin-Exposure-in-Stocks-Like-MSTR?mtm_campaign=API-OFA",
      "created_at": "2025-05-03T08:00:58Z",
      "votes": {
        "negative": 0,
        "positive": 0,
        "important": 0,
        "liked": 0,
        "disliked": 0,
        "lol": 0,
        "toxic": 0,
        "saved": 0,
        "comments": 0
      }
    },
    {
      "kind": "news",
      "domain": "thecoinrepublic.com",
      "source": {
        "title": "The Coin Republic",
        "region": "en",
        "domain": "thecoinrepublic.com",
        "path": null,
        "type": "feed",
        "url": "https://cryptopanic.com/news/external/3334323435382D3231353331323935/?mtm_campaign=API-OFA"
      },
      "title": "US Inflation: Core PCE Data Below Expectations As Macro Trends Weigh Down Bitcoin",
      "published_at": "2025-05-03T07:53:32Z",
      "slug": "US-Inflation-Core-PCE-Data-Below-Expectations-As-Macro-Trends-Weigh-Down-Bitcoin",
      "currencies": [
        {
          "code": "BTC",
          "title": "Bitcoin",
          "slug": "bitcoin",
          "url": "https://cryptopanic.com/news/bitcoin/"
        }
      ],
      "id": 21531295,
      "url": "https://cryptopanic.com/news/21531295/US-Inflation-Core-PCE-Data-Below-Expectations-As-Macro-Trends-Weigh-Down-Bitcoin?mtm_campaign=API-OFA",
      "created_at": "2025-05-03T07:53:32Z",
      "votes": {
        "negative": 0,
        "positive": 0,
        "important": 0,
        "liked": 0,
        "disliked": 0,
        "lol": 0,
        "toxic": 0,
        "saved": 0,
        "comments": 0
      }
    },
    {
      "kind": "news",
      "domain": "coindoo.com",
      "source": {
        "title": "Coindoo.com",
        "region": "en",
        "domain": "coindoo.com",
        "path": null,
        "type": "feed",
        "url": "https://cryptopanic.com/news/external/3334323435382D3231353331323934/?mtm_campaign=API-OFA"
      },
      "title": "Bitcoin Long-Term Holders Add 254K BTC, Showing Confidence Despite Price Volatility",
      "published_at": "2025-05-03T07:51:39Z",
      "slug": "Bitcoin-Long-Term-Holders-Add-254K-BTC-Showing-Confidence-Despite-Price-Volatility",
      "currencies": [
        {
          "code": "BTC",
          "title": "Bitcoin",
          "slug": "bitcoin",
          "url": "https://cryptopanic.com/news/bitcoin/"
        }
      ],
      "id": 21531294,
      "url": "https://cryptopanic.com/news/21531294/Bitcoin-Long-Term-Holders-Add-254K-BTC-Showing-Confidence-Despite-Price-Volatility?mtm_campaign=API-OFA",
      "created_at": "2025-05-03T07:51:39Z",
      "votes": {
        "negative": 0,
        "positive": 0,
        "important": 0,
        "liked": 0,
        "disliked": 0,
        "lol": 0,
        "toxic": 0,
        "saved": 0,
        "comments": 0
      }
    },
    {
      "kind": "news",
      "domain": "coingabbar.com",
      "source": {
        "title": "coingabbar",
        "region": "en",
        "domain": "coingabbar.com",
        "path": null,
        "type": "feed",
        "url": "https://cryptopanic.com/news/external/3334323435382D3231353333303839/?mtm_campaign=API-OFA"
      },
      "title": "Bitcoin 2025 Unites Global Titans in Las Vegas",
      "published_at": "2025-05-03T07:45:00Z",
      "slug": "Bitcoin-2025-Unites-Global-Titans-in-Las-Vegas",
      "currencies": [
        {
          "code": "BTC",
          "title": "Bitcoin",
          "slug": "bitcoin",
          "url": "https://cryptopanic.com/news/bitcoin/"
        }
      ],
      "id": 21533089,
      "url": "https://cryptopanic.com/news/21533089/Bitcoin-2025-Unites-Global-Titans-in-Las-Vegas?mtm_campaign=API-OFA",
      "created_at": "2025-05-03T07:45:00Z",
      "votes": {
        "negative": 0,
        "positive": 0,
        "important": 0,
        "liked": 0,
        "disliked": 0,
        "lol": 0,
        "toxic": 0,
        "saved": 0,
        "comments": 0
      }
    },
    {
      "kind": "news",
      "domain": "newsbtc.com",
      "source": {
        "title": "NewsBTC",
        "region": "en",
        "domain": "newsbtc.com",
        "path": null,
        "type": "feed",
        "url": "https://cryptopanic.com/news/external/3334323435382D3231353331323632/?mtm_campaign=API-OFA"
      },
      "title": "Bitcoin Sees Sharp Increase in Taker Buy/Sell Ratio on Binance\u2014What Does It Signal?",
      "published_at": "2025-05-03T07:30:39Z",
      "slug": "Bitcoin-Sees-Sharp-Increase-in-Taker-BuySell-Ratio-on-BinanceWhat-Does-It-Signal",
      "currencies": [
        {
          "code": "BTC",
          "title": "Bitcoin",
          "slug": "bitcoin",
          "url": "https://cryptopanic.com/news/bitcoin/"
        },
        {
          "code": "USDT",
          "title": "Tether",
          "slug": "tether",
          "url": "https://cryptopanic.com/news/tether/"
        }
      ],
      "id": 21531262,
      "url": "https://cryptopanic.com/news/21531262/Bitcoin-Sees-Sharp-Increase-in-Taker-BuySell-Ratio-on-BinanceWhat-Does-It-Signal?mtm_campaign=API-OFA",
      "created_at": "2025-05-03T07:30:39Z",
      "votes": {
        "negative": 0,
        "positive": 0,
        "important": 0,
        "liked": 0,
        "disliked": 0,
        "lol": 0,
        "toxic": 0,
        "saved": 0,
        "comments": 0
      }
    },
    {
      "kind": "news",
      "domain": "bitcoin.com",
      "source": {
        "title": "Bitcoin.com",
        "region": "en",
        "domain": "bitcoin.com",
        "path": null,
        "type": "feed",
        "url": "https://cryptopanic.com/news/external/3334323435382D3231353331323538/?mtm_campaign=API-OFA"
      },
      "title": "Lightspark-Built Bitcoin L2 Spark Launches on Mainnet",
      "published_at": "2025-05-03T07:30:04Z",
      "slug": "Lightspark-Built-Bitcoin-L2-Spark-Launches-on-Mainnet",
      "currencies": [
        {
          "code": "BTC",
          "title": "Bitcoin",
          "slug": "bitcoin",
          "url": "https://cryptopanic.com/news/bitcoin/"
        }
      ],
      "id": 21531258,
      "url": "https://cryptopanic.com/news/21531258/Lightspark-Built-Bitcoin-L2-Spark-Launches-on-Mainnet?mtm_campaign=API-OFA",
      "created_at": "2025-05-03T07:30:04Z",
      "votes": {
        "negative": 0,
        "positive": 0,
        "important": 0,
        "liked": 0,
        "disliked": 0,
        "lol": 0,
        "toxic": 0,
        "saved": 0,
        "comments": 0
      }
    },
    {
      "kind": "news",
      "domain": "coindoo.com",
      "source": {
        "title": "Coindoo.com",
        "region": "en",
        "domain": "coindoo.com",
        "path": null,
        "type": "feed",
        "url": "https://cryptopanic.com/news/external/3334323435382D3231353331323333/?mtm_campaign=API-OFA"
      },
      "title": "Bitcoin could be key to Switzerland\u2019s future economic stability \u2013 Here is Why",
      "published_at": "2025-05-03T07:17:37Z",
      "slug": "Bitcoin-could-be-key-to-Switzerlands-future-economic-stability-Here-is-Why",
      "currencies": [
        {
          "code": "BTC",
          "title": "Bitcoin",
          "slug": "bitcoin",
          "url": "https://cryptopanic.com/news/bitcoin/"
        }
      ],
      "id": 21531233,
      "url": "https://cryptopanic.com/news/21531233/Bitcoin-could-be-key-to-Switzerlands-future-economic-stability-Here-is-Why?mtm_campaign=API-OFA",
      "created_at": "2025-05-03T07:17:37Z",
      "votes": {
        "negative": 0,
        "positive": 0,
        "important": 0,
        "liked": 0,
        "disliked": 0,
        "lol": 0,
        "toxic": 0,
        "saved": 0,
        "comments": 0
      }
    },
    {
      "kind": "news",
      "domain": "coinpedia.org",
      "votes": {
        "negative": 0,
        "positive": 0,
        "important": 0,
        "liked": 0,
        "disliked": 0,
        "lol": 1,
        "toxic": 0,
        "saved": 0,
        "comments": 0
      },
      "source": {
        "title": "coinpedia",
        "region": "en",
        "domain": "coinpedia.org",
        "path": null,
        "type": "feed",
        "url": "https://cryptopanic.com/news/external/3334323435382D3231353331323237/?mtm_campaign=API-OFA"
      },
      "title": "U.S. Government Won\u2019t Buy Bitcoin for a Reserve, Says BitMEX co-founder Arthur Hayes",
      "published_at": "2025-05-03T07:15:25Z",
      "slug": "US-Government-Wont-Buy-Bitcoin-for-a-Reserve-Says-BitMEX-co-founder-Arthur-Hayes",
      "currencies": [
        {
          "code": "BTC",
          "title": "Bitcoin",
          "slug": "bitcoin",
          "url": "https://cryptopanic.com/news/bitcoin/"
        }
      ],
      "id": 21531227,
      "url": "https://cryptopanic.com/news/21531227/US-Government-Wont-Buy-Bitcoin-for-a-Reserve-Says-BitMEX-co-founder-Arthur-Hayes?mtm_campaign=API-OFA",
      "created_at": "2025-05-03T07:15:25Z"
    },
    {
      "kind": "news",
      "domain": "thedefiant.io",
      "votes": {
        "negative": 0,
        "positive": 1,
        "important": 0,
        "liked": 1,
        "disliked": 0,
        "lol": 0,
        "toxic": 0,
        "saved": 0,
        "comments": 0
      },
      "source": {
        "title": "DeFi News",
        "region": "en",
        "domain": "thedefiant.io",
        "path": null,
        "type": "feed",
        "url": "https://cryptopanic.com/news/external/3334323435382D3231353330393432/?mtm_campaign=API-OFA"
      },
      "title": "Binance Founder Changpeng Zhao Says Multiple Countries Are Buying Bitcoin as Store-of-Value for Sovereign Reserves",
      "published_at": "2025-05-03T07:05:11Z",
      "slug": "Binance-Founder-Changpeng-Zhao-Says-Multiple-Countries-Are-Buying-Bitcoin-as-Store-of-Value-for-Sovereign-Reserves",
      "currencies": [
        {
          "code": "BTC",
          "title": "Bitcoin",
          "slug": "bitcoin",
          "url": "https://cryptopanic.com/news/bitcoin/"
        }
      ],
      "id": 21530942,
      "url": "https://cryptopanic.com/news/21530942/Binance-Founder-Changpeng-Zhao-Says-Multiple-Countries-Are-Buying-Bitcoin-as-Store-of-Value-for-Sovereign-Reserves?mtm_campaign=API-OFA",
      "created_at": "2025-05-03T07:05:11Z"
    },
    {
      "kind": "news",
      "domain": "thedefiant.io",
      "source": {
        "title": "DeFi News",
        "region": "en",
        "domain": "thedefiant.io",
        "path": null,
        "type": "feed",
        "url": "https://cryptopanic.com/news/external/3334323435382D3231353330393433/?mtm_campaign=API-OFA"
      },
      "title": "Thumzup Media Files $200 Million Form S-3 Offering to Buy Bitcoin as Primary Treasury Reserve",
      "published_at": "2025-05-03T07:05:11Z",
      "slug": "Thumzup-Media-Files-200-Million-Form-S-3-Offering-to-Buy-Bitcoin-as-Primary-Treasury-Reserve",
      "currencies": [
        {
          "code": "BTC",
          "title": "Bitcoin",
          "slug": "bitcoin",
          "url": "https://cryptopanic.com/news/bitcoin/"
        }
      ],
      "id": 21530943,
      "url": "https://cryptopanic.com/news/21530943/Thumzup-Media-Files-200-Million-Form-S-3-Offering-to-Buy-Bitcoin-as-Primary-Treasury-Reserve?mtm_campaign=API-OFA",
      "created_at": "2025-05-03T07:05:11Z",
      "votes": {
        "negative": 0,
        "positive": 0,
        "important": 0,
        "liked": 0,
        "disliked": 0,
        "lol": 0,
        "toxic": 0,
        "saved": 0,
        "comments": 0
      }
    },
    {
      "kind": "news",
      "domain": "dailyhodl.com",
      "source": {
        "title": "The Daily Hodl",
        "region": "en",
        "domain": "dailyhodl.com",
        "path": null,
        "type": "feed",
        "url": "https://cryptopanic.com/news/external/3334323435382D3231353330393531/?mtm_campaign=API-OFA"
      },
      "title": "Analytics Firm Issues Bitcoin Alert, Says BTC Approaching Area of Heavy Sell-Side Pressure \u2013 Here Are the Targets",
      "published_at": "2025-05-03T07:04:29Z",
      "slug": "Analytics-Firm-Issues-Bitcoin-Alert-Says-BTC-Approaching-Area-of-Heavy-Sell-Side-Pressure-Here-Are-the-Targets",
      "currencies": [
        {
          "code": "BTC",
          "title": "Bitcoin",
          "slug": "bitcoin",
          "url": "https://cryptopanic.com/news/bitcoin/"
        }
      ],
      "id": 21530951,
      "url": "https://cryptopanic.com/news/21530951/Analytics-Firm-Issues-Bitcoin-Alert-Says-BTC-Approaching-Area-of-Heavy-Sell-Side-Pressure-Here-Are-the-Targets?mtm_campaign=API-OFA",
      "created_at": "2025-05-03T07:04:29Z",
      "votes": {
        "negative": 0,
        "positive": 0,
        "important": 0,
        "liked": 0,
        "disliked": 0,
        "lol": 0,
        "toxic": 0,
        "saved": 0,
        "comments": 0
      }
    },
    {
      "kind": "news",
      "domain": "u.today",
      "source": {
        "title": "U.Today",
        "region": "en",
        "domain": "u.today",
        "path": null,
        "type": "feed",
        "url": "https://cryptopanic.com/news/external/3334323435382D3231353330373030/?mtm_campaign=API-OFA"
      },
      "title": "Strategy\u2019s Saylor Reveals Asset That Leaves Bitcoin In Dust This Year",
      "published_at": "2025-05-03T07:02:00Z",
      "slug": "Strategys-Saylor-Reveals-Asset-That-Leaves-Bitcoin-In-Dust-This-Year",
      "currencies": [
        {
          "code": "BTC",
          "title": "Bitcoin",
          "slug": "bitcoin",
          "url": "https://cryptopanic.com/news/bitcoin/"
        }
      ],
      "id": 21530700,
      "url": "https://cryptopanic.com/news/21530700/Strategys-Saylor-Reveals-Asset-That-Leaves-Bitcoin-In-Dust-This-Year?mtm_campaign=API-OFA",
      "created_at": "2025-05-03T07:02:00Z",
      "votes": {
        "negative": 0,
        "positive": 0,
        "important": 0,
        "liked": 0,
        "disliked": 0,
        "lol": 0,
        "toxic": 0,
        "saved": 0,
        "comments": 0
      }
    },
    {
      "kind": "media",
      "domain": "youtube.com",
      "source": {
        "title": "Simply Bitcoin",
        "region": "en",
        "domain": "youtube.com",
        "path": null,
        "type": "media",
        "url": "https://cryptopanic.com/news/external/3334323435382D3231353330363836/?mtm_campaign=API-OFA"
      },
      "title": "Max Keiser: Bitcoin Will Be The World Reserve Currency!",
      "published_at": "2025-05-03T07:00:25Z",
      "slug": "Max-Keiser-Bitcoin-Will-Be-The-World-Reserve-Currency",
      "currencies": [
        {
          "code": "BTC",
          "title": "Bitcoin",
          "slug": "bitcoin",
          "url": "https://cryptopanic.com/news/bitcoin/"
        }
      ],
      "id": 21530686,
      "url": "https://cryptopanic.com/news/21530686/Max-Keiser-Bitcoin-Will-Be-The-World-Reserve-Currency?mtm_campaign=API-OFA",
      "created_at": "2025-05-03T07:00:25Z",
      "votes": {
        "negative": 0,
        "positive": 0,
        "important": 0,
        "liked": 0,
        "disliked": 0,
        "lol": 0,
        "toxic": 0,
        "saved": 0,
        "comments": 0
      }
    },
    {
      "kind": "news",
      "domain": "coingape.com",
      "source": {
        "title": "CoinGape",
        "region": "en",
        "domain": "coingape.com",
        "path": null,
        "type": "feed",
        "url": "https://cryptopanic.com/news/external/3334323435382D3231353330333735/?mtm_campaign=API-OFA"
      },
      "title": "3 Altcoins to Buy If Donald Trump\u2019s Trade Negotiations with China Fail",
      "published_at": "2025-05-03T06:59:34Z",
      "slug": "3-Altcoins-to-Buy-If-Donald-Trumps-Trade-Negotiations-with-China-Fail",
      "currencies": [
        {
          "code": "BTC",
          "title": "Bitcoin",
          "slug": "bitcoin",
          "url": "https://cryptopanic.com/news/bitcoin/"
        },
        {
          "code": "SOL",
          "title": "Solana",
          "slug": "solana",
          "url": "https://cryptopanic.com/news/solana/"
        }
      ],
      "id": 21530375,
      "url": "https://cryptopanic.com/news/21530375/3-Altcoins-to-Buy-If-Donald-Trumps-Trade-Negotiations-with-China-Fail?mtm_campaign=API-OFA",
      "created_at": "2025-05-03T06:59:34Z",
      "votes": {
        "negative": 0,
        "positive": 0,
        "important": 0,
        "liked": 0,
        "disliked": 0,
        "lol": 0,
        "toxic": 0,
        "saved": 0,
        "comments": 0
      }
    },
    {
      "kind": "news",
      "domain": "@DaanCrypto",
      "source": {
        "title": "Twitter - daancrypto",
        "region": "en",
        "domain": "DaanCrypto",
        "path": "@daancrypto",
        "type": "twitter",
        "url": "https://cryptopanic.com/news/external/3334323435382D3231353330333731/?mtm_campaign=API-OFA"
      },
      "title": "$BTC Weekend and volatility has still been pretty low for BTC.\n\nDon't think we'll see too much happening now a lot of the headlines have also come in. Trade war cooled off slightly and we've had a lot of data &amp; earnings come in. Stocks had a 9 day win streak for the first time in",
      "published_at": "2025-05-03T06:33:22Z",
      "slug": "BTC-Weekend-and-volatility-has-still-been-pretty-low-for-BTC-Dont-think-well-see-too-much-happening-now-a-lot-of-the-headlines-have-also-come-in-Trade-war-cooled-off-slightly-and-weve-had-a-lot-of-data-amp-earnings-come-in-Stocks-had-a-9-day-win-streak-for-the-first-time-in",
      "currencies": [
        {
          "code": "BTC",
          "title": "Osmosis allBTC",
          "slug": "osmosis-allbtc",
          "url": "https://cryptopanic.com/news/osmosis-allbtc/"
        }
      ],
      "id": 21530371,
      "url": "https://cryptopanic.com/news/21530371/BTC-Weekend-and-volatility-has-still-been-pretty-low-for-BTC-Dont-think-well-see-too-much-happening-now-a-lot-of-the-headlines-have-also-come-in-Trade-war-cooled-off-slightly-and-weve-had-a-lot-of-data-amp-earnings-come-in-Stocks-had-a-9-day-win-streak-for?mtm_campaign=API-OFA",
      "created_at": "2025-05-03T06:33:22Z",
      "votes": {
        "negative": 0,
        "positive": 0,
        "important": 0,
        "liked": 0,
        "disliked": 0,
        "lol": 0,
        "toxic": 0,
        "saved": 0,
        "comments": 0
      }
    },
    {
      "kind": "news",
      "domain": "cryptopotato.com",
      "source": {
        "title": "Feed - Cryptopotato.Com",
        "region": "en",
        "domain": "cryptopotato.com",
        "path": null,
        "type": "feed",
        "url": "https://cryptopanic.com/news/external/3334323435382D3231353330333330/?mtm_campaign=API-OFA"
      },
      "title": "BTC\u2019s Price Was Stopped at $98K but Dominance Over Alts Continues to Rise (Weekend Watch)",
      "published_at": "2025-05-03T06:16:47Z",
      "slug": "BTCs-Price-Was-Stopped-at-98K-but-Dominance-Over-Alts-Continues-to-Rise-Weekend-Watch",
      "currencies": [
        {
          "code": "BTC",
          "title": "Bitcoin",
          "slug": "bitcoin",
          "url": "https://cryptopanic.com/news/bitcoin/"
        },
        {
          "code": "USDT",
          "title": "Tether",
          "slug": "tether",
          "url": "https://cryptopanic.com/news/tether/"
        },
        {
          "code": "VIRTUAL",
          "title": "Virtuals Protocol",
          "slug": "virtual-protocol",
          "url": "https://cryptopanic.com/news/virtual-protocol/"
        },
        {
          "code": "BTCUSD",
          "title": "Bitcoin USD (BTCFi)",
          "slug": "bitcoin-usd-btcfi",
          "url": "https://cryptopanic.com/news/bitcoin-usd-btcfi/"
        }
      ],
      "id": 21530330,
      "url": "https://cryptopanic.com/news/21530330/BTCs-Price-Was-Stopped-at-98K-but-Dominance-Over-Alts-Continues-to-Rise-Weekend-Watch?mtm_campaign=API-OFA",
      "created_at": "2025-05-03T06:16:47Z",
      "votes": {
        "negative": 0,
        "positive": 0,
        "important": 0,
        "liked": 0,
        "disliked": 0,
        "lol": 0,
        "toxic": 0,
        "saved": 0,
        "comments": 0
      }
    },
    {
      "kind": "news",
      "domain": "newsbtc.com",
      "source": {
        "title": "NewsBTC",
        "region": "en",
        "domain": "newsbtc.com",
        "path": null,
        "type": "feed",
        "url": "https://cryptopanic.com/news/external/3334323435382D3231353239373235/?mtm_campaign=API-OFA"
      },
      "title": "Bitcoin Stochastic RSI Signals Brewing Bullish Momentum \u2013 ATH Incoming?",
      "published_at": "2025-05-03T06:00:24Z",
      "slug": "Bitcoin-Stochastic-RSI-Signals-Brewing-Bullish-Momentum-ATH-Incoming",
      "currencies": [
        {
          "code": "BTC",
          "title": "Bitcoin",
          "slug": "bitcoin",
          "url": "https://cryptopanic.com/news/bitcoin/"
        },
        {
          "code": "USDT",
          "title": "Tether",
          "slug": "tether",
          "url": "https://cryptopanic.com/news/tether/"
        },
        {
          "code": "ATH",
          "title": "Aethir",
          "slug": "aethir",
          "url": "https://cryptopanic.com/news/aethir/"
        }
      ],
      "id": 21529725,
      "url": "https://cryptopanic.com/news/21529725/Bitcoin-Stochastic-RSI-Signals-Brewing-Bullish-Momentum-ATH-Incoming?mtm_campaign=API-OFA",
      "created_at": "2025-05-03T06:00:24Z",
      "votes": {
        "negative": 0,
        "positive": 0,
        "important": 0,
        "liked": 0,
        "disliked": 0,
        "lol": 0,
        "toxic": 0,
        "saved": 0,
        "comments": 0
      }
    },
    {
      "kind": "news",
      "domain": "ambcrypto.com",
      "source": {
        "title": "AMBCrypto",
        "region": "en",
        "domain": "ambcrypto.com",
        "path": null,
        "type": "feed",
        "url": "https://cryptopanic.com/news/external/3334323435382D3231353239373135/?mtm_campaign=API-OFA"
      },
      "title": "Bitcoin flashes 2024-like accumulation pattern \u2013 Analysts say $100K breakout could be next",
      "published_at": "2025-05-03T06:00:20Z",
      "slug": "Bitcoin-flashes-2024-like-accumulation-pattern-Analysts-say-100K-breakout-could-be-next",
      "currencies": [
        {
          "code": "BTC",
          "title": "Bitcoin",
          "slug": "bitcoin",
          "url": "https://cryptopanic.com/news/bitcoin/"
        }
      ],
      "id": 21529715,
      "url": "https://cryptopanic.com/news/21529715/Bitcoin-flashes-2024-like-accumulation-pattern-Analysts-say-100K-breakout-could-be-next?mtm_campaign=API-OFA",
      "created_at": "2025-05-03T06:00:20Z",
      "votes": {
        "negative": 0,
        "positive": 0,
        "important": 0,
        "liked": 0,
        "disliked": 0,
        "lol": 0,
        "toxic": 0,
        "saved": 0,
        "comments": 0
      }
    },
    {
      "kind": "blog",
      "domain": "en.cryptonomist.ch",
      "source": {
        "title": "En Cryptonomist",
        "region": "en",
        "domain": "en.cryptonomist.ch",
        "path": null,
        "type": "blog",
        "url": "https://cryptopanic.com/news/external/3334323435382D3231353333303134/?mtm_campaign=API-OFA"
      },
      "title": "\u201cSell in May and go away\u201d: does the proverb also apply to Bitcoin?",
      "published_at": "2025-05-03T06:00:00Z",
      "slug": "Sell-in-May-and-go-away-does-the-proverb-also-apply-to-Bitcoin",
      "currencies": [
        {
          "code": "BTC",
          "title": "Bitcoin",
          "slug": "bitcoin",
          "url": "https://cryptopanic.com/news/bitcoin/"
        },
        {
          "code": "Z",
          "title": "PLANZ",
          "slug": "planz",
          "url": "https://cryptopanic.com/news/planz/"
        }
      ],
      "id": 21533014,
      "url": "https://cryptopanic.com/news/21533014/Sell-in-May-and-go-away-does-the-proverb-also-apply-to-Bitcoin?mtm_campaign=API-OFA",
      "created_at": "2025-05-03T06:00:00Z",
      "votes": {
        "negative": 0,
        "positive": 0,
        "important": 0,
        "liked": 0,
        "disliked": 0,
        "lol": 0,
        "toxic": 0,
        "saved": 0,
        "comments": 0
      }
    }
  ]
}