{
  "count": 200,
  "next": "https://cryptopanic.com/api/v1/posts/?auth_token=23049df32a525f4a2b17d3a8d15b6c94f8d1ffc3&public=true&currencies=BTC&approved=true&page=4",
  "previous": "https://cryptopanic.com/api/v1/posts/?auth_token=23049df32a525f4a2b17d3a8d15b6c94f8d1ffc3&public=true&currencies=BTC&approved=true&page=2",
  "results": [
    {
      "kind": "news",
      "domain": "zycrypto.com",
      "source": {
        "title": "ZyCrypto",
        "region": "en",
        "domain": "zycrypto.com",
        "path": null,
        "type": "feed",
        "url": "https://cryptopanic.com/news/external/3334323435382D3231353335353332/?mtm_campaign=API-OFA"
      },
      "title": "Bitcoin Predicted to Trade between $122,000 and $150,000 By End Of 2025",
      "published_at": "2025-05-03T12:37:40Z",
      "slug": "Bitcoin-Predicted-to-Trade-between-122000-and-150000-By-End-Of-2025",
      "currencies": [
        {
          "code": "BTC",
          "title": "Bitcoin",
          "slug": "bitcoin",
          "url": "https://cryptopanic.com/news/bitcoin/"
        },
        {
          "code": "USDT",
          "title": "Tether",
          "slug": "tether",
          "url": "https://cryptopanic.com/news/tether/"
        },
        {
          "code": "USDC",
          "title": "USDC",
          "slug": "usd-coin",
          "url": "https://cryptopanic.com/news/usd-coin/"
        },
        {
          "code": "TUSD",
          "title": "TrueUSD",
          "slug": "true-usd",
          "url": "https://cryptopanic.com/news/true-usd/"
        },
        {
          "code": "BTCUSD",
          "title": "Bitcoin USD (BTCFi)",
          "slug": "bitcoin-usd-btcfi",
          "url": "https://cryptopanic.com/news/bitcoin-usd-btcfi/"
        }
      ],
      "id": 21535532,
      "url": "https://cryptopanic.com/news/21535532/Bitcoin-Predicted-to-Trade-between-122000-and-150000-By-End-Of-2025?mtm_campaign=API-OFA",
      "created_at": "2025-05-03T12:37:40Z",
      "votes": {
        "negative": 0,
        "positive": 0,
        "important": 0,
        "liked": 0,
        "disliked": 0,
        "lol": 0,
        "toxic": 0,
        "saved": 0,
        "comments": 0
      }
    },
    {
      "kind": "news",
      "domain": "zycrypto.com",
      "source": {
        "title": "ZyCrypto",
        "region": "en",
        "domain": "zycrypto.com",
        "path": null,
        "type": "feed",
        "url": "https://cryptopanic.com/news/external/3334323435382D3231353335353233/?mtm_campaign=API-OFA"
      },
      "title": "UK Regulator Proposes Banning Crypto Customers From Using Credit Cards To Buy Bitcoin",
      "published_at": "2025-05-03T12:30:03Z",
      "slug": "UK-Regulator-Proposes-Banning-Crypto-Customers-From-Using-Credit-Cards-To-Buy-Bitcoin",
      "currencies": [
        {
          "code": "BTC",
          "title": "Bitcoin",
          "slug": "bitcoin",
          "url": "https://cryptopanic.com/news/bitcoin/"
        }
      ],
      "id": 21535523,
      "url": "https://cryptopanic.com/news/21535523/UK-Regulator-Proposes-Banning-Crypto-Customers-From-Using-Credit-Cards-To-Buy-Bitcoin?mtm_campaign=API-OFA",
      "created_at": "2025-05-03T12:30:03Z",
      "votes": {
        "negative": 0,
        "positive": 0,
        "important": 0,
        "liked": 0,
        "disliked": 0,
        "lol": 0,
        "toxic": 0,
        "saved": 0,
        "comments": 0
      }
    },
    {
      "kind": "news",
      "domain": "cryptodaily.co.uk",
      "source": {
        "title": "CryptoDaily",
        "region": "en",
        "domain": "cryptodaily.co.uk",
        "path": null,
        "type": "feed",
        "url": "https://cryptopanic.com/news/external/3334323435382D3231353335343038/?mtm_campaign=API-OFA"
      },
      "title": "Crypto Price Analysis: Bitcoin (BTC), Solana (SOL), Hedara (HBAR), VeChain (VET), Remittix (RTX) and Shiba Inu (SHIB)",
      "published_at": "2025-05-03T12:13:23Z",
      "slug": "Crypto-Price-Analysis-Bitcoin-BTC-Solana-SOL-Hedara-HBAR-VeChain-VET-Remittix-RTX-and-Shiba-Inu-SHIB",
      "currencies": [
        {
          "code": "BTC",
          "title": "Bitcoin",
          "slug": "bitcoin",
          "url": "https://cryptopanic.com/news/bitcoin/"
        },
        {
          "code": "SOL",
          "title": "Solana",
          "slug": "solana",
          "url": "https://cryptopanic.com/news/solana/"
        },
        {
          "code": "SHIB",
          "title": "Shiba Inu",
          "slug": "shiba-inu",
          "url": "https://cryptopanic.com/news/shiba-inu/"
        },
        {
          "code": "HBAR",
          "title": "Hedera",
          "slug": "hedera-hashgraph",
          "url": "https://cryptopanic.com/news/hedera-hashgraph/"
        },
        {
          "code": "VET",
          "title": "VeChain",
          "slug": "vechain",
          "url": "https://cryptopanic.com/news/vechain/"
        }
      ],
      "id": 21535408,
      "url": "https://cryptopanic.com/news/21535408/Crypto-Price-Analysis-Bitcoin-BTC-Solana-SOL-Hedara-HBAR-VeChain-VET-Remittix-RTX-and-Shiba-Inu-SHIB?mtm_campaign=API-OFA",
      "created_at": "2025-05-03T12:13:23Z",
      "votes": {
        "negative": 0,
        "positive": 0,
        "important": 0,
        "liked": 0,
        "disliked": 0,
        "lol": 0,
        "toxic": 0,
        "saved": 0,
        "comments": 0
      }
    },
    {
      "kind": "news",
      "domain": "coinpaper.com",
      "source": {
        "title": "Coinpaper",
        "region": "en",
        "domain": "coinpaper.com",
        "path": null,
        "type": "feed",
        "url": "https://cryptopanic.com/news/external/3334323435382D3231353335313937/?mtm_campaign=API-OFA"
      },
      "title": "A Year After Bitcoin\u2019s Halving: Why Is It Different This Time?",
      "published_at": "2025-05-03T12:10:23Z",
      "slug": "A-Year-After-Bitcoins-Halving-Why-Is-It-Different-This-Time",
      "currencies": [
        {
          "code": "BTC",
          "title": "Bitcoin",
          "slug": "bitcoin",
          "url": "https://cryptopanic.com/news/bitcoin/"
        }
      ],
      "id": 21535197,
      "url": "https://cryptopanic.com/news/21535197/A-Year-After-Bitcoins-Halving-Why-Is-It-Different-This-Time?mtm_campaign=API-OFA",
      "created_at": "2025-05-03T12:10:23Z",
      "votes": {
        "negative": 0,
        "positive": 0,
        "important": 0,
        "liked": 0,
        "disliked": 0,
        "lol": 0,
        "toxic": 0,
        "saved": 0,
        "comments": 0
      }
    },
    {
      "kind": "news",
      "domain": "beincrypto.com",
      "source": {
        "title": "BeInCrypto",
        "region": "en",
        "domain": "beincrypto.com",
        "path": null,
        "type": "feed",
        "url": "https://cryptopanic.com/news/external/3334323435382D3231353335353337/?mtm_campaign=API-OFA"
      },
      "title": "Arizona Bitcoin Reserve Bill Fails As Governor Vetoes Proposal",
      "published_at": "2025-05-03T12:09:37Z",
      "slug": "Arizona-Bitcoin-Reserve-Bill-Fails-As-Governor-Vetoes-Proposal",
      "currencies": [
        {
          "code": "BTC",
          "title": "Bitcoin",
          "slug": "bitcoin",
          "url": "https://cryptopanic.com/news/bitcoin/"
        }
      ],
      "id": 21535537,
      "url": "https://cryptopanic.com/news/21535537/Arizona-Bitcoin-Reserve-Bill-Fails-As-Governor-Vetoes-Proposal?mtm_campaign=API-OFA",
      "created_at": "2025-05-03T12:09:37Z",
      "votes": {
        "negative": 0,
        "positive": 0,
        "important": 0,
        "liked": 0,
        "disliked": 0,
        "lol": 0,
        "toxic": 0,
        "saved": 0,
        "comments": 0
      }
    },
    {
      "kind": "news",
      "domain": "thecoinrepublic.com",
      "source": {
        "title": "The Coin Republic",
        "region": "en",
        "domain": "thecoinrepublic.com",
        "path": null,
        "type": "feed",
        "url": "https://cryptopanic.com/news/external/3334323435382D3231353335353536/?mtm_campaign=API-OFA"
      },
      "title": "Bitcoin (BTC) Price Key Accumulation Structure Unfolds",
      "published_at": "2025-05-03T12:08:00Z",
      "slug": "Bitcoin-BTC-Price-Key-Accumulation-Structure-Unfolds",
      "currencies": [
        {
          "code": "BTC",
          "title": "Bitcoin",
          "slug": "bitcoin",
          "url": "https://cryptopanic.com/news/bitcoin/"
        }
      ],
      "id": 21535556,
      "url": "https://cryptopanic.com/news/21535556/Bitcoin-BTC-Price-Key-Accumulation-Structure-Unfolds?mtm_campaign=API-OFA",
      "created_at": "2025-05-03T12:08:00Z",
      "votes": {
        "negative": 0,
        "positive": 0,
        "important": 0,
        "liked": 0,
        "disliked": 0,
        "lol": 0,
        "toxic": 0,
        "saved": 0,
        "comments": 0
      }
    },
    {
      "kind": "news",
      "domain": "u.today",
      "source": {
        "title": "U.Today",
        "region": "en",
        "domain": "u.today",
        "path": null,
        "type": "feed",
        "url": "https://cryptopanic.com/news/external/3334323435382D3231353335313432/?mtm_campaign=API-OFA"
      },
      "title": "Bitcoin Core Dominance Criticized by Industry Veteran",
      "published_at": "2025-05-03T12:07:00Z",
      "slug": "Bitcoin-Core-Dominance-Criticized-by-Industry-Veteran",
      "currencies": [
        {
          "code": "BTC",
          "title": "Bitcoin",
          "slug": "bitcoin",
          "url": "https://cryptopanic.com/news/bitcoin/"
        }
      ],
      "id": 21535142,
      "url": "https://cryptopanic.com/news/21535142/Bitcoin-Core-Dominance-Criticized-by-Industry-Veteran?mtm_campaign=API-OFA",
      "created_at": "2025-05-03T12:07:00Z",
      "votes": {
        "negative": 0,
        "positive": 0,
        "important": 0,
        "liked": 0,
        "disliked": 0,
        "lol": 0,
        "toxic": 0,
        "saved": 0,
        "comments": 0
      }
    },
    {
      "kind": "news",
      "domain": "investors.catenaa.com",
      "source": {
        "title": "Catenaa News",
        "region": "en",
        "domain": "investors.catenaa.com",
        "path": null,
        "type": "feed",
        "url": "https://cryptopanic.com/news/external/3334323435382D3231353331343731/?mtm_campaign=API-OFA"
      },
      "title": "Matrix Finance Offers $200M Credit to Bitdeer Mining Unit",
      "published_at": "2025-05-03T12:03:32Z",
      "slug": "Matrix-Finance-Offers-200M-Credit-to-Bitdeer-Mining-Unit",
      "currencies": [
        {
          "code": "BTC",
          "title": "Bitcoin",
          "slug": "bitcoin",
          "url": "https://cryptopanic.com/news/bitcoin/"
        }
      ],
      "id": 21531471,
      "url": "https://cryptopanic.com/news/21531471/Matrix-Finance-Offers-200M-Credit-to-Bitdeer-Mining-Unit?mtm_campaign=API-OFA",
      "created_at": "2025-05-03T12:03:32Z",
      "votes": {
        "negative": 0,
        "positive": 0,
        "important": 0,
        "liked": 0,
        "disliked": 0,
        "lol": 0,
        "toxic": 0,
        "saved": 0,
        "comments": 0
      }
    },
    {
      "kind": "news",
      "domain": "investors.catenaa.com",
      "source": {
        "title": "Catenaa News",
        "region": "en",
        "domain": "investors.catenaa.com",
        "path": null,
        "type": "feed",
        "url": "https://cryptopanic.com/news/external/3334323435382D3231353331343730/?mtm_campaign=API-OFA"
      },
      "title": "Cantor Nears $3 Billion Crypto Venture With SoftBank, Tether",
      "published_at": "2025-05-03T12:03:18Z",
      "slug": "Cantor-Nears-3-Billion-Crypto-Venture-With-SoftBank-Tether",
      "currencies": [
        {
          "code": "BTC",
          "title": "Bitcoin",
          "slug": "bitcoin",
          "url": "https://cryptopanic.com/news/bitcoin/"
        },
        {
          "code": "USDT",
          "title": "Tether",
          "slug": "tether",
          "url": "https://cryptopanic.com/news/tether/"
        }
      ],
      "id": 21531470,
      "url": "https://cryptopanic.com/news/21531470/Cantor-Nears-3-Billion-Crypto-Venture-With-SoftBank-Tether?mtm_campaign=API-OFA",
      "created_at": "2025-05-03T12:03:18Z",
      "votes": {
        "negative": 0,
        "positive": 0,
        "important": 0,
        "liked": 0,
        "disliked": 0,
        "lol": 0,
        "toxic": 0,
        "saved": 0,
        "comments": 0
      }
    },
    {
      "kind": "news",
      "domain": "cryptodnes.bg",
      "source": {
        "title": "cryptodnes",
        "region": "en",
        "domain": "cryptodnes.bg",
        "path": null,
        "type": "feed",
        "url": "https://cryptopanic.com/news/external/3334323435382D3231353337353635/?mtm_campaign=API-OFA"
      },
      "title": "Top Trader Predicts $150K Bitcoin Peak\u2014But Warns of Major Crash",
      "published_at": "2025-05-03T12:00:44Z",
      "slug": "Top-Trader-Predicts-150K-Bitcoin-PeakBut-Warns-of-Major-Crash",
      "currencies": [
        {
          "code": "BTC",
          "title": "Bitcoin",
          "slug": "bitcoin",
          "url": "https://cryptopanic.com/news/bitcoin/"
        }
      ],
      "id": 21537565,
      "url": "https://cryptopanic.com/news/21537565/Top-Trader-Predicts-150K-Bitcoin-PeakBut-Warns-of-Major-Crash?mtm_campaign=API-OFA",
      "created_at": "2025-05-03T12:00:44Z",
      "votes": {
        "negative": 0,
        "positive": 0,
        "important": 0,
        "liked": 0,
        "disliked": 0,
        "lol": 0,
        "toxic": 0,
        "saved": 0,
        "comments": 0
      }
    },
    {
      "kind": "news",
      "domain": "newsbtc.com",
      "source": {
        "title": "NewsBTC",
        "region": "en",
        "domain": "newsbtc.com",
        "path": null,
        "type": "feed",
        "url": "https://cryptopanic.com/news/external/3334323435382D3231353334373531/?mtm_campaign=API-OFA"
      },
      "title": "Bitcoin ATH Incoming? Analyst Flags Indicators That Preceded Every Major BTC Rally",
      "published_at": "2025-05-03T12:00:40Z",
      "slug": "Bitcoin-ATH-Incoming-Analyst-Flags-Indicators-That-Preceded-Every-Major-BTC-Rally",
      "currencies": [
        {
          "code": "BTC",
          "title": "Bitcoin",
          "slug": "bitcoin",
          "url": "https://cryptopanic.com/news/bitcoin/"
        },
        {
          "code": "USDT",
          "title": "Tether",
          "slug": "tether",
          "url": "https://cryptopanic.com/news/tether/"
        },
        {
          "code": "ATH",
          "title": "Aethir",
          "slug": "aethir",
          "url": "https://cryptopanic.com/news/aethir/"
        }
      ],
      "id": 21534751,
      "url": "https://cryptopanic.com/news/21534751/Bitcoin-ATH-Incoming-Analyst-Flags-Indicators-That-Preceded-Every-Major-BTC-Rally?mtm_campaign=API-OFA",
      "created_at": "2025-05-03T12:00:40Z",
      "votes": {
        "negative": 0,
        "positive": 0,
        "important": 0,
        "liked": 0,
        "disliked": 0,
        "lol": 0,
        "toxic": 0,
        "saved": 0,
        "comments": 0
      }
    },
    {
      "kind": "news",
      "domain": "beincrypto.com",
      "source": {
        "title": "BeInCrypto",
        "region": "en",
        "domain": "beincrypto.com",
        "path": null,
        "type": "feed",
        "url": "https://cryptopanic.com/news/external/3334323435382D3231353335353336/?mtm_campaign=API-OFA"
      },
      "title": "Bitcoin (BTC) Rally Divides Market: Miners Bullish, Traders Cautious",
      "published_at": "2025-05-03T12:00:00Z",
      "slug": "Bitcoin-BTC-Rally-Divides-Market-Miners-Bullish-Traders-Cautious",
      "currencies": [
        {
          "code": "BTC",
          "title": "Bitcoin",
          "slug": "bitcoin",
          "url": "https://cryptopanic.com/news/bitcoin/"
        }
      ],
      "id": 21535536,
      "url": "https://cryptopanic.com/news/21535536/Bitcoin-BTC-Rally-Divides-Market-Miners-Bullish-Traders-Cautious?mtm_campaign=API-OFA",
      "created_at": "2025-05-03T12:00:00Z",
      "votes": {
        "negative": 0,
        "positive": 0,
        "important": 0,
        "liked": 0,
        "disliked": 0,
        "lol": 0,
        "toxic": 0,
        "saved": 0,
        "comments": 0
      }
    },
    {
      "kind": "news",
      "domain": "coinspeaker.com",
      "source": {
        "title": "Coinspeaker",
        "region": "en",
        "domain": "coinspeaker.com",
        "path": null,
        "type": "feed",
        "url": "https://cryptopanic.com/news/external/3334323435382D3231353337353836/?mtm_campaign=API-OFA"
      },
      "title": "$675M Bitcoin ETF Surge Inflows, US Govt. Still a No-Go: Hayes",
      "published_at": "2025-05-03T11:49:57Z",
      "slug": "675M-Bitcoin-ETF-Surge-Inflows-US-Govt-Still-a-No-Go-Hayes",
      "currencies": [
        {
          "code": "BTC",
          "title": "Bitcoin",
          "slug": "bitcoin",
          "url": "https://cryptopanic.com/news/bitcoin/"
        },
        {
          "code": "ETH",
          "title": "Ethereum",
          "slug": "ethereum",
          "url": "https://cryptopanic.com/news/ethereum/"
        }
      ],
      "id": 21537586,
      "url": "https://cryptopanic.com/news/21537586/675M-Bitcoin-ETF-Surge-Inflows-US-Govt-Still-a-No-Go-Hayes?mtm_campaign=API-OFA",
      "created_at": "2025-05-03T11:49:57Z",
      "votes": {
        "negative": 0,
        "positive": 0,
        "important": 0,
        "liked": 0,
        "disliked": 0,
        "lol": 0,
        "toxic": 0,
        "saved": 0,
        "comments": 0
      }
    },
    {
      "kind": "news",
      "domain": "cryptobriefing.com",
      "source": {
        "title": "CryptoBriefing",
        "region": "en",
        "domain": "cryptobriefing.com",
        "path": null,
        "type": "feed",
        "url": "https://cryptopanic.com/news/external/3334323435382D3231353334363933/?mtm_campaign=API-OFA"
      },
      "title": "Arizona governor rejects bill to add Bitcoin to state reserves",
      "published_at": "2025-05-03T11:44:34Z",
      "slug": "Arizona-governor-rejects-bill-to-add-Bitcoin-to-state-reserves",
      "currencies": [
        {
          "code": "BTC",
          "title": "Bitcoin",
          "slug": "bitcoin",
          "url": "https://cryptopanic.com/news/bitcoin/"
        }
      ],
      "id": 21534693,
      "url": "https://cryptopanic.com/news/21534693/Arizona-governor-rejects-bill-to-add-Bitcoin-to-state-reserves?mtm_campaign=API-OFA",
      "created_at": "2025-05-03T11:44:34Z",
      "votes": {
        "negative": 0,
        "positive": 0,
        "important": 0,
        "liked": 0,
        "disliked": 0,
        "lol": 0,
        "toxic": 0,
        "saved": 0,
        "comments": 0
      }
    },
    {
      "kind": "news",
      "domain": "coinpedia.org",
      "votes": {
        "negative": 0,
        "positive": 0,
        "important": 0,
        "liked": 0,
        "disliked": 0,
        "lol": 0,
        "toxic": 0,
        "saved": 0,
        "comments": 1
      },
      "source": {
        "title": "coinpedia",
        "region": "en",
        "domain": "coinpedia.org",
        "path": null,
        "type": "feed",
        "url": "https://cryptopanic.com/news/external/3334323435382D3231353334363735/?mtm_campaign=API-OFA"
      },
      "title": "Arizona Governor Rejects Bitcoin Reserve Bill, Calls It \u201cUntested Investment\u201d",
      "published_at": "2025-05-03T11:35:01Z",
      "slug": "Arizona-Governor-Rejects-Bitcoin-Reserve-Bill-Calls-It-Untested-Investment",
      "currencies": [
        {
          "code": "BTC",
          "title": "Bitcoin",
          "slug": "bitcoin",
          "url": "https://cryptopanic.com/news/bitcoin/"
        }
      ],
      "id": 21534675,
      "url": "https://cryptopanic.com/news/21534675/Arizona-Governor-Rejects-Bitcoin-Reserve-Bill-Calls-It-Untested-Investment?mtm_campaign=API-OFA",
      "created_at": "2025-05-03T11:35:01Z"
    },
    {
      "kind": "news",
      "domain": "coingape.com",
      "source": {
        "title": "CoinGape",
        "region": "en",
        "domain": "coingape.com",
        "path": null,
        "type": "feed",
        "url": "https://cryptopanic.com/news/external/3334323435382D3231353334363336/?mtm_campaign=API-OFA"
      },
      "title": "Bitcoin Price To $1M: What\u2019s Behind Robert Kiyosaki & Arthur Hayes\u2019 BTC Prediction?",
      "published_at": "2025-05-03T11:18:18Z",
      "slug": "Bitcoin-Price-To-1M-Whats-Behind-Robert-Kiyosaki-Arthur-Hayes-BTC-Prediction",
      "currencies": [
        {
          "code": "BTC",
          "title": "Bitcoin",
          "slug": "bitcoin",
          "url": "https://cryptopanic.com/news/bitcoin/"
        }
      ],
      "id": 21534636,
      "url": "https://cryptopanic.com/news/21534636/Bitcoin-Price-To-1M-Whats-Behind-Robert-Kiyosaki-Arthur-Hayes-BTC-Prediction?mtm_campaign=API-OFA",
      "created_at": "2025-05-03T11:18:18Z",
      "votes": {
        "negative": 0,
        "positive": 0,
        "important": 0,
        "liked": 0,
        "disliked": 0,
        "lol": 0,
        "toxic": 0,
        "saved": 0,
        "comments": 0
      }
    },
    {
      "kind": "news",
      "domain": "cryptopolitan.com",
      "source": {
        "title": "Feed - Cryptopolitan.Com",
        "region": "en",
        "domain": "cryptopolitan.com",
        "path": null,
        "type": "feed",
        "url": "https://cryptopanic.com/news/external/3334323435382D3231353334363235/?mtm_campaign=API-OFA"
      },
      "title": "Arthur Hayes doubts the US government would print money to purchase BTC",
      "published_at": "2025-05-03T11:10:48Z",
      "slug": "Arthur-Hayes-doubts-the-US-government-would-print-money-to-purchase-BTC",
      "currencies": [
        {
          "code": "BTC",
          "title": "Bitcoin",
          "slug": "bitcoin",
          "url": "https://cryptopanic.com/news/bitcoin/"
        }
      ],
      "id": 21534625,
      "url": "https://cryptopanic.com/news/21534625/Arthur-Hayes-doubts-the-US-government-would-print-money-to-purchase-BTC?mtm_campaign=API-OFA",
      "created_at": "2025-05-03T11:10:48Z",
      "votes": {
        "negative": 0,
        "positive": 0,
        "important": 0,
        "liked": 0,
        "disliked": 0,
        "lol": 0,
        "toxic": 0,
        "saved": 0,
        "comments": 0
      }
    },
    {
      "kind": "news",
      "domain": "livebitcoinnews.com",
      "source": {
        "title": "Live Bitcoin News",
        "region": "en",
        "domain": "livebitcoinnews.com",
        "path": null,
        "type": "feed",
        "url": "https://cryptopanic.com/news/external/3334323435382D3231353334313037/?mtm_campaign=API-OFA"
      },
      "title": "Metaplanet Boosts Bitcoin Bet with Bold $25M Bond Move",
      "published_at": "2025-05-03T11:03:26Z",
      "slug": "Metaplanet-Boosts-Bitcoin-Bet-with-Bold-25M-Bond-Move",
      "currencies": [
        {
          "code": "BTC",
          "title": "Bitcoin",
          "slug": "bitcoin",
          "url": "https://cryptopanic.com/news/bitcoin/"
        }
      ],
      "id": 21534107,
      "url": "https://cryptopanic.com/news/21534107/Metaplanet-Boosts-Bitcoin-Bet-with-Bold-25M-Bond-Move?mtm_campaign=API-OFA",
      "created_at": "2025-05-03T11:03:26Z",
      "votes": {
        "negative": 0,
        "positive": 0,
        "important": 0,
        "liked": 0,
        "disliked": 0,
        "lol": 0,
        "toxic": 0,
        "saved": 0,
        "comments": 0
      }
    },
    {
      "kind": "news",
      "domain": "cryptodnes.bg",
      "source": {
        "title": "cryptodnes",
        "region": "en",
        "domain": "cryptodnes.bg",
        "path": null,
        "type": "feed",
        "url": "https://cryptopanic.com/news/external/3334323435382D3231353337353634/?mtm_campaign=API-OFA"
      },
      "title": "Cathie Wood\u2019s Ark Invest Loads Up on HOOD as BTC Buying Slows",
      "published_at": "2025-05-03T11:00:19Z",
      "slug": "Cathie-Woods-Ark-Invest-Loads-Up-on-HOOD-as-BTC-Buying-Slows",
      "currencies": [
        {
          "code": "BTC",
          "title": "Bitcoin",
          "slug": "bitcoin",
          "url": "https://cryptopanic.com/news/bitcoin/"
        }
      ],
      "id": 21537564,
      "url": "https://cryptopanic.com/news/21537564/Cathie-Woods-Ark-Invest-Loads-Up-on-HOOD-as-BTC-Buying-Slows?mtm_campaign=API-OFA",
      "created_at": "2025-05-03T11:00:19Z",
      "votes": {
        "negative": 0,
        "positive": 0,
        "important": 0,
        "liked": 0,
        "disliked": 0,
        "lol": 0,
        "toxic": 0,
        "saved": 0,
        "comments": 0
      }
    },
    {
      "kind": "news",
      "domain": "coinpedia.org",
      "votes": {
        "negative": 2,
        "positive": 3,
        "important": 2,
        "liked": 3,
        "disliked": 3,
        "lol": 3,
        "toxic": 0,
        "saved": 1,
        "comments": 1
      },
      "source": {
        "title": "coinpedia",
        "region": "en",
        "domain": "coinpedia.org",
        "path": null,
        "type": "feed",
        "url": "https://cryptopanic.com/news/external/3334323435382D3231353333383930/?mtm_campaign=API-OFA"
      },
      "title": "Will Ethereum Become the New Bitcoin? Vitalik Buterin Has a Plan For It",
      "published_at": "2025-05-03T10:54:45Z",
      "slug": "Will-Ethereum-Become-the-New-Bitcoin-Vitalik-Buterin-Has-a-Plan-For-It",
      "currencies": [
        {
          "code": "BTC",
          "title": "Bitcoin",
          "slug": "bitcoin",
          "url": "https://cryptopanic.com/news/bitcoin/"
        },
        {
          "code": "ETH",
          "title": "Ethereum",
          "slug": "ethereum",
          "url": "https://cryptopanic.com/news/ethereum/"
        }
      ],
      "id": 21533890,
      "url": "https://cryptopanic.com/news/21533890/Will-Ethereum-Become-the-New-Bitcoin-Vitalik-Buterin-Has-a-Plan-For-It?mtm_campaign=API-OFA",
      "created_at": "2025-05-03T10:54:45Z"
    }
  ]
}