{
  "count": 200,
  "next": "https://cryptopanic.com/api/v1/posts/?auth_token=23049df32a525f4a2b17d3a8d15b6c94f8d1ffc3&public=true&currencies=BTC&approved=true&page=5",
  "previous": "https://cryptopanic.com/api/v1/posts/?auth_token=23049df32a525f4a2b17d3a8d15b6c94f8d1ffc3&public=true&currencies=BTC&approved=true&page=3",
  "results": [
    {
      "kind": "news",
      "domain": "square.binance.com",
      "source": {
        "title": "Binance Square",
        "region": "en",
        "domain": "square.binance.com",
        "path": null,
        "type": "feed",
        "url": "https://cryptopanic.com/news/external/3334323435382D3231353336343833/?mtm_campaign=API-OFA"
      },
      "title": "Bitcoin Price Movements Could Trigger Significant Liquidations on Major Exchanges",
      "published_at": "2025-05-03T10:53:42Z",
      "slug": "Bitcoin-Price-Movements-Could-Trigger-Significant-Liquidations-on-Major-Exchanges",
      "currencies": [
        {
          "code": "BTC",
          "title": "Bitcoin",
          "slug": "bitcoin",
          "url": "https://cryptopanic.com/news/bitcoin/"
        }
      ],
      "id": 21536483,
      "url": "https://cryptopanic.com/news/21536483/Bitcoin-Price-Movements-Could-Trigger-Significant-Liquidations-on-Major-Exchanges?mtm_campaign=API-OFA",
      "created_at": "2025-05-03T10:53:42Z",
      "votes": {
        "negative": 0,
        "positive": 0,
        "important": 0,
        "liked": 0,
        "disliked": 0,
        "lol": 0,
        "toxic": 0,
        "saved": 0,
        "comments": 0
      }
    },
    {
      "kind": "news",
      "domain": "coindoo.com",
      "source": {
        "title": "Coindoo.com",
        "region": "en",
        "domain": "coindoo.com",
        "path": null,
        "type": "feed",
        "url": "https://cryptopanic.com/news/external/3334323435382D3231353333383834/?mtm_campaign=API-OFA"
      },
      "title": "Altcoin Season Still on Hold as Bitcoin Dominates",
      "published_at": "2025-05-03T10:50:16Z",
      "slug": "Altcoin-Season-Still-on-Hold-as-Bitcoin-Dominates",
      "currencies": [
        {
          "code": "BTC",
          "title": "Bitcoin",
          "slug": "bitcoin",
          "url": "https://cryptopanic.com/news/bitcoin/"
        }
      ],
      "id": 21533884,
      "url": "https://cryptopanic.com/news/21533884/Altcoin-Season-Still-on-Hold-as-Bitcoin-Dominates?mtm_campaign=API-OFA",
      "created_at": "2025-05-03T10:50:16Z",
      "votes": {
        "negative": 0,
        "positive": 0,
        "important": 0,
        "liked": 0,
        "disliked": 0,
        "lol": 0,
        "toxic": 0,
        "saved": 0,
        "comments": 0
      }
    },
    {
      "kind": "news",
      "domain": "cryptopolitan.com",
      "votes": {
        "negative": 0,
        "positive": 4,
        "important": 1,
        "liked": 2,
        "disliked": 0,
        "lol": 0,
        "toxic": 0,
        "saved": 0,
        "comments": 0
      },
      "source": {
        "title": "Feed - Cryptopolitan.Com",
        "region": "en",
        "domain": "cryptopolitan.com",
        "path": null,
        "type": "feed",
        "url": "https://cryptopanic.com/news/external/3334323435382D3231353333383837/?mtm_campaign=API-OFA"
      },
      "title": "Binance\u2019s CZ says gold is \u2018not a limited supply asset,\u2019 so it can\u2019t beat Bitcoin",
      "published_at": "2025-05-03T10:50:00Z",
      "slug": "Binances-CZ-says-gold-is-not-a-limited-supply-asset-so-it-cant-beat-Bitcoin",
      "currencies": [
        {
          "code": "BTC",
          "title": "Bitcoin",
          "slug": "bitcoin",
          "url": "https://cryptopanic.com/news/bitcoin/"
        }
      ],
      "id": 21533887,
      "url": "https://cryptopanic.com/news/21533887/Binances-CZ-says-gold-is-not-a-limited-supply-asset-so-it-cant-beat-Bitcoin?mtm_campaign=API-OFA",
      "created_at": "2025-05-03T10:50:00Z"
    },
    {
      "kind": "news",
      "domain": "square.binance.com",
      "source": {
        "title": "Binance Square",
        "region": "en",
        "domain": "square.binance.com",
        "path": null,
        "type": "feed",
        "url": "https://cryptopanic.com/news/external/3334323435382D3231353336343831/?mtm_campaign=API-OFA"
      },
      "title": "Bitcoin (BTC) Drops Below 96,000 USDT with a 0.96% Decrease in 24 Hours",
      "published_at": "2025-05-03T10:44:42Z",
      "slug": "Bitcoin-BTC-Drops-Below-96000-USDT-with-a-096-Decrease-in-24-Hours",
      "currencies": [
        {
          "code": "BTC",
          "title": "Bitcoin",
          "slug": "bitcoin",
          "url": "https://cryptopanic.com/news/bitcoin/"
        },
        {
          "code": "USDT",
          "title": "Tether",
          "slug": "tether",
          "url": "https://cryptopanic.com/news/tether/"
        }
      ],
      "id": 21536481,
      "url": "https://cryptopanic.com/news/21536481/Bitcoin-BTC-Drops-Below-96000-USDT-with-a-096-Decrease-in-24-Hours?mtm_campaign=API-OFA",
      "created_at": "2025-05-03T10:44:42Z",
      "votes": {
        "negative": 0,
        "positive": 0,
        "important": 0,
        "liked": 0,
        "disliked": 0,
        "lol": 0,
        "toxic": 0,
        "saved": 0,
        "comments": 0
      }
    },
    {
      "kind": "news",
      "domain": "cryptonews.com",
      "votes": {
        "negative": 0,
        "positive": 0,
        "important": 0,
        "liked": 1,
        "disliked": 0,
        "lol": 0,
        "toxic": 0,
        "saved": 0,
        "comments": 0
      },
      "source": {
        "title": "Cryptonews",
        "region": "en",
        "domain": "cryptonews.com",
        "path": null,
        "type": "feed",
        "url": "https://cryptopanic.com/news/external/3334323435382D3231353333383533/?mtm_campaign=API-OFA"
      },
      "title": "Arthur Hayes: US Unlikely to Buy Bitcoin Due to Debt and \u2018Bro\u2019 Stigma",
      "published_at": "2025-05-03T10:43:39Z",
      "slug": "Arthur-Hayes-US-Unlikely-to-Buy-Bitcoin-Due-to-Debt-and-Bro-Stigma",
      "currencies": [
        {
          "code": "BTC",
          "title": "Bitcoin",
          "slug": "bitcoin",
          "url": "https://cryptopanic.com/news/bitcoin/"
        }
      ],
      "id": 21533853,
      "url": "https://cryptopanic.com/news/21533853/Arthur-Hayes-US-Unlikely-to-Buy-Bitcoin-Due-to-Debt-and-Bro-Stigma?mtm_campaign=API-OFA",
      "created_at": "2025-05-03T10:43:39Z"
    },
    {
      "kind": "news",
      "domain": "cryptopotato.com",
      "votes": {
        "negative": 0,
        "positive": 0,
        "important": 0,
        "liked": 0,
        "disliked": 0,
        "lol": 0,
        "toxic": 0,
        "saved": 1,
        "comments": 0
      },
      "source": {
        "title": "Feed - Cryptopotato.Com",
        "region": "en",
        "domain": "cryptopotato.com",
        "path": null,
        "type": "feed",
        "url": "https://cryptopanic.com/news/external/3334323435382D3231353333383432/?mtm_campaign=API-OFA"
      },
      "title": "4 Mouthwatering Signs Ripple\u2019s (XRP) Price Is About to Rip in May",
      "published_at": "2025-05-03T10:39:42Z",
      "slug": "4-Mouthwatering-Signs-Ripples-XRP-Price-Is-About-to-Rip-in-May",
      "currencies": [
        {
          "code": "BTC",
          "title": "Bitcoin",
          "slug": "bitcoin",
          "url": "https://cryptopanic.com/news/bitcoin/"
        },
        {
          "code": "XRP",
          "title": "XRP",
          "slug": "ripple",
          "url": "https://cryptopanic.com/news/ripple/"
        }
      ],
      "id": 21533842,
      "url": "https://cryptopanic.com/news/21533842/4-Mouthwatering-Signs-Ripples-XRP-Price-Is-About-to-Rip-in-May?mtm_campaign=API-OFA",
      "created_at": "2025-05-03T10:39:42Z"
    },
    {
      "kind": "news",
      "domain": "thedefiant.io",
      "source": {
        "title": "DeFi News",
        "region": "en",
        "domain": "thedefiant.io",
        "path": null,
        "type": "feed",
        "url": "https://cryptopanic.com/news/external/3334323435382D3231353333383338/?mtm_campaign=API-OFA"
      },
      "title": "Arizona Governor Katie Hobbs Vetoes SB 1025, Citing Bitcoin as 'Untested Investment'",
      "published_at": "2025-05-03T10:35:11Z",
      "slug": "Arizona-Governor-Katie-Hobbs-Vetoes-SB-1025-Citing-Bitcoin-as-Untested-Investment",
      "currencies": [
        {
          "code": "BTC",
          "title": "Bitcoin",
          "slug": "bitcoin",
          "url": "https://cryptopanic.com/news/bitcoin/"
        }
      ],
      "id": 21533838,
      "url": "https://cryptopanic.com/news/21533838/Arizona-Governor-Katie-Hobbs-Vetoes-SB-1025-Citing-Bitcoin-as-Untested-Investment?mtm_campaign=API-OFA",
      "created_at": "2025-05-03T10:35:11Z",
      "votes": {
        "negative": 0,
        "positive": 0,
        "important": 0,
        "liked": 0,
        "disliked": 0,
        "lol": 0,
        "toxic": 0,
        "saved": 0,
        "comments": 0
      }
    },
    {
      "kind": "news",
      "domain": "newsbtc.com",
      "source": {
        "title": "NewsBTC",
        "region": "en",
        "domain": "newsbtc.com",
        "path": null,
        "type": "feed",
        "url": "https://cryptopanic.com/news/external/3334323435382D3231353333383036/?mtm_campaign=API-OFA"
      },
      "title": "Bitcoin Sandwiched Between Major Support & Resistance Levels\u2014Can Bulls Win Out?",
      "published_at": "2025-05-03T10:30:42Z",
      "slug": "Bitcoin-Sandwiched-Between-Major-Support-Resistance-LevelsCan-Bulls-Win-Out",
      "currencies": [
        {
          "code": "BTC",
          "title": "Bitcoin",
          "slug": "bitcoin",
          "url": "https://cryptopanic.com/news/bitcoin/"
        },
        {
          "code": "USDT",
          "title": "Tether",
          "slug": "tether",
          "url": "https://cryptopanic.com/news/tether/"
        }
      ],
      "id": 21533806,
      "url": "https://cryptopanic.com/news/21533806/Bitcoin-Sandwiched-Between-Major-Support-Resistance-LevelsCan-Bulls-Win-Out?mtm_campaign=API-OFA",
      "created_at": "2025-05-03T10:30:42Z",
      "votes": {
        "negative": 0,
        "positive": 0,
        "important": 0,
        "liked": 0,
        "disliked": 0,
        "lol": 0,
        "toxic": 0,
        "saved": 0,
        "comments": 0
      }
    },
    {
      "kind": "news",
      "domain": "livebitcoinnews.com",
      "source": {
        "title": "Live Bitcoin News",
        "region": "en",
        "domain": "livebitcoinnews.com",
        "path": null,
        "type": "feed",
        "url": "https://cryptopanic.com/news/external/3334323435382D3231353333373932/?mtm_campaign=API-OFA"
      },
      "title": "Bitcoin and SHIB See Mixed Signals\u2014Analysts Predict Ozak AI\u2019s Surge After $1M Raised",
      "published_at": "2025-05-03T10:20:07Z",
      "slug": "Bitcoin-and-SHIB-See-Mixed-SignalsAnalysts-Predict-Ozak-AIs-Surge-After-1M-Raised",
      "currencies": [
        {
          "code": "BTC",
          "title": "Bitcoin",
          "slug": "bitcoin",
          "url": "https://cryptopanic.com/news/bitcoin/"
        },
        {
          "code": "SHIB",
          "title": "Shiba Inu",
          "slug": "shiba-inu",
          "url": "https://cryptopanic.com/news/shiba-inu/"
        }
      ],
      "id": 21533792,
      "url": "https://cryptopanic.com/news/21533792/Bitcoin-and-SHIB-See-Mixed-SignalsAnalysts-Predict-Ozak-AIs-Surge-After-1M-Raised?mtm_campaign=API-OFA",
      "created_at": "2025-05-03T10:20:07Z",
      "votes": {
        "negative": 0,
        "positive": 0,
        "important": 0,
        "liked": 0,
        "disliked": 0,
        "lol": 0,
        "toxic": 0,
        "saved": 0,
        "comments": 0
      }
    },
    {
      "kind": "news",
      "domain": "coinpedia.org",
      "source": {
        "title": "coinpedia",
        "region": "en",
        "domain": "coinpedia.org",
        "path": null,
        "type": "feed",
        "url": "https://cryptopanic.com/news/external/3334323435382D3231353333373939/?mtm_campaign=API-OFA"
      },
      "title": "Coinpedia Digest: This Week\u2019s Crypto Highlights | 3 May, 2025",
      "published_at": "2025-05-03T10:19:19Z",
      "slug": "Coinpedia-Digest-This-Weeks-Crypto-Highlights-3-May-2025",
      "currencies": [
        {
          "code": "BTC",
          "title": "Bitcoin",
          "slug": "bitcoin",
          "url": "https://cryptopanic.com/news/bitcoin/"
        }
      ],
      "id": 21533799,
      "url": "https://cryptopanic.com/news/21533799/Coinpedia-Digest-This-Weeks-Crypto-Highlights-3-May-2025?mtm_campaign=API-OFA",
      "created_at": "2025-05-03T10:19:19Z",
      "votes": {
        "negative": 0,
        "positive": 0,
        "important": 0,
        "liked": 0,
        "disliked": 0,
        "lol": 0,
        "toxic": 0,
        "saved": 0,
        "comments": 0
      }
    },
    {
      "kind": "news",
      "domain": "coingape.com",
      "source": {
        "title": "CoinGape",
        "region": "en",
        "domain": "coingape.com",
        "path": null,
        "type": "feed",
        "url": "https://cryptopanic.com/news/external/3334323435382D3231353333383030/?mtm_campaign=API-OFA"
      },
      "title": "Crypto Market Declines 18% in Q1 2025, Ethereum Leads with 45% Drop: Latest Report",
      "published_at": "2025-05-03T10:19:16Z",
      "slug": "Crypto-Market-Declines-18-in-Q1-2025-Ethereum-Leads-with-45-Drop-Latest-Report",
      "currencies": [
        {
          "code": "BTC",
          "title": "Bitcoin",
          "slug": "bitcoin",
          "url": "https://cryptopanic.com/news/bitcoin/"
        },
        {
          "code": "ETH",
          "title": "Ethereum",
          "slug": "ethereum",
          "url": "https://cryptopanic.com/news/ethereum/"
        }
      ],
      "id": 21533800,
      "url": "https://cryptopanic.com/news/21533800/Crypto-Market-Declines-18-in-Q1-2025-Ethereum-Leads-with-45-Drop-Latest-Report?mtm_campaign=API-OFA",
      "created_at": "2025-05-03T10:19:16Z",
      "votes": {
        "negative": 0,
        "positive": 0,
        "important": 0,
        "liked": 0,
        "disliked": 0,
        "lol": 0,
        "toxic": 0,
        "saved": 0,
        "comments": 0
      }
    },
    {
      "kind": "news",
      "domain": "cryptonews.com",
      "source": {
        "title": "Cryptonews",
        "region": "en",
        "domain": "cryptonews.com",
        "path": null,
        "type": "feed",
        "url": "https://cryptopanic.com/news/external/3334323435382D3231353333373733/?mtm_campaign=API-OFA"
      },
      "title": "Bitcoin Price Steadies at $96,362 as Market Sentiment Shifts to Greed: What\u2019s Next?",
      "published_at": "2025-05-03T10:17:13Z",
      "slug": "Bitcoin-Price-Steadies-at-96362-as-Market-Sentiment-Shifts-to-Greed-Whats-Next",
      "currencies": [
        {
          "code": "BTC",
          "title": "Bitcoin",
          "slug": "bitcoin",
          "url": "https://cryptopanic.com/news/bitcoin/"
        }
      ],
      "id": 21533773,
      "url": "https://cryptopanic.com/news/21533773/Bitcoin-Price-Steadies-at-96362-as-Market-Sentiment-Shifts-to-Greed-Whats-Next?mtm_campaign=API-OFA",
      "created_at": "2025-05-03T10:17:13Z",
      "votes": {
        "negative": 0,
        "positive": 0,
        "important": 0,
        "liked": 0,
        "disliked": 0,
        "lol": 0,
        "toxic": 0,
        "saved": 0,
        "comments": 0
      }
    },
    {
      "kind": "news",
      "domain": "coinpedia.org",
      "votes": {
        "negative": 1,
        "positive": 3,
        "important": 2,
        "liked": 3,
        "disliked": 1,
        "lol": 1,
        "toxic": 0,
        "saved": 0,
        "comments": 0
      },
      "source": {
        "title": "coinpedia",
        "region": "en",
        "domain": "coinpedia.org",
        "path": null,
        "type": "feed",
        "url": "https://cryptopanic.com/news/external/3334323435382D3231353333373938/?mtm_campaign=API-OFA"
      },
      "title": "Vitalik Buterin Plans to Streamline Ethereum for a Safer Future",
      "published_at": "2025-05-03T10:16:33Z",
      "slug": "Vitalik-Buterin-Plans-to-Streamline-Ethereum-for-a-Safer-Future",
      "currencies": [
        {
          "code": "BTC",
          "title": "Bitcoin",
          "slug": "bitcoin",
          "url": "https://cryptopanic.com/news/bitcoin/"
        },
        {
          "code": "ETH",
          "title": "Ethereum",
          "slug": "ethereum",
          "url": "https://cryptopanic.com/news/ethereum/"
        },
        {
          "code": "L1",
          "title": "Lamina1",
          "slug": "lamina1",
          "url": "https://cryptopanic.com/news/lamina1/"
        }
      ],
      "id": 21533798,
      "url": "https://cryptopanic.com/news/21533798/Vitalik-Buterin-Plans-to-Streamline-Ethereum-for-a-Safer-Future?mtm_campaign=API-OFA",
      "created_at": "2025-05-03T10:16:33Z"
    },
    {
      "kind": "news",
      "domain": "square.binance.com",
      "source": {
        "title": "Binance Square",
        "region": "en",
        "domain": "square.binance.com",
        "path": null,
        "type": "feed",
        "url": "https://cryptopanic.com/news/external/3334323435382D3231353336343738/?mtm_campaign=API-OFA"
      },
      "title": "Whale Trader Profits Over $9 Million from Cryptocurrency Investments",
      "published_at": "2025-05-03T10:13:40Z",
      "slug": "Whale-Trader-Profits-Over-9-Million-from-Cryptocurrency-Investments",
      "currencies": [
        {
          "code": "BTC",
          "title": "Bitcoin",
          "slug": "bitcoin",
          "url": "https://cryptopanic.com/news/bitcoin/"
        },
        {
          "code": "ETH",
          "title": "Ethereum",
          "slug": "ethereum",
          "url": "https://cryptopanic.com/news/ethereum/"
        },
        {
          "code": "XRP",
          "title": "XRP",
          "slug": "ripple",
          "url": "https://cryptopanic.com/news/ripple/"
        },
        {
          "code": "SOL",
          "title": "Solana",
          "slug": "solana",
          "url": "https://cryptopanic.com/news/solana/"
        },
        {
          "code": "LINK",
          "title": "Chainlink",
          "slug": "chainlink",
          "url": "https://cryptopanic.com/news/chainlink/"
        },
        {
          "code": "LTC",
          "title": "Litecoin",
          "slug": "litecoin",
          "url": "https://cryptopanic.com/news/litecoin/"
        }
      ],
      "id": 21536478,
      "url": "https://cryptopanic.com/news/21536478/Whale-Trader-Profits-Over-9-Million-from-Cryptocurrency-Investments?mtm_campaign=API-OFA",
      "created_at": "2025-05-03T10:13:40Z",
      "votes": {
        "negative": 0,
        "positive": 0,
        "important": 0,
        "liked": 0,
        "disliked": 0,
        "lol": 0,
        "toxic": 0,
        "saved": 0,
        "comments": 0
      }
    },
    {
      "kind": "news",
      "domain": "coinjournal.net",
      "source": {
        "title": "CoinJournal",
        "region": "en",
        "domain": "coinjournal.net",
        "path": null,
        "type": "feed",
        "url": "https://cryptopanic.com/news/external/3334323435382D3231353333383033/?mtm_campaign=API-OFA"
      },
      "title": "Bitcoin Pepe price to jump soon as BTC ETFs inflows show strong momentum",
      "published_at": "2025-05-03T10:09:43Z",
      "slug": "Bitcoin-Pepe-price-to-jump-soon-as-BTC-ETFs-inflows-show-strong-momentum",
      "currencies": [
        {
          "code": "BTC",
          "title": "Bitcoin",
          "slug": "bitcoin",
          "url": "https://cryptopanic.com/news/bitcoin/"
        },
        {
          "code": "PEPE",
          "title": "Pepe",
          "slug": "pepe",
          "url": "https://cryptopanic.com/news/pepe/"
        }
      ],
      "id": 21533803,
      "url": "https://cryptopanic.com/news/21533803/Bitcoin-Pepe-price-to-jump-soon-as-BTC-ETFs-inflows-show-strong-momentum?mtm_campaign=API-OFA",
      "created_at": "2025-05-03T10:09:43Z",
      "votes": {
        "negative": 0,
        "positive": 0,
        "important": 0,
        "liked": 0,
        "disliked": 0,
        "lol": 0,
        "toxic": 0,
        "saved": 0,
        "comments": 0
      }
    },
    {
      "kind": "news",
      "domain": "ecoinimist.com",
      "votes": {
        "negative": 0,
        "positive": 0,
        "important": 0,
        "liked": 1,
        "disliked": 0,
        "lol": 0,
        "toxic": 0,
        "saved": 0,
        "comments": 0
      },
      "source": {
        "title": "ecoinimist.com",
        "region": "en",
        "domain": "ecoinimist.com",
        "path": null,
        "type": "feed",
        "url": "https://cryptopanic.com/news/external/3334323435382D3231353333353032/?mtm_campaign=API-OFA"
      },
      "title": "Arthur Hayes Doubts U.S. Will Expand Bitcoin Reserve, Reaffirms Classic Altcoin Cycle Strategy",
      "published_at": "2025-05-03T10:05:00Z",
      "slug": "Arthur-Hayes-Doubts-US-Will-Expand-Bitcoin-Reserve-Reaffirms-Classic-Altcoin-Cycle-Strategy",
      "currencies": [
        {
          "code": "BTC",
          "title": "Bitcoin",
          "slug": "bitcoin",
          "url": "https://cryptopanic.com/news/bitcoin/"
        }
      ],
      "id": 21533502,
      "url": "https://cryptopanic.com/news/21533502/Arthur-Hayes-Doubts-US-Will-Expand-Bitcoin-Reserve-Reaffirms-Classic-Altcoin-Cycle-Strategy?mtm_campaign=API-OFA",
      "created_at": "2025-05-03T10:05:00Z"
    },
    {
      "kind": "news",
      "domain": "cryptodnes.bg",
      "source": {
        "title": "cryptodnes",
        "region": "en",
        "domain": "cryptodnes.bg",
        "path": null,
        "type": "feed",
        "url": "https://cryptopanic.com/news/external/3334323435382D3231353334333735/?mtm_campaign=API-OFA"
      },
      "title": "Nasdaq-Listed Logistics Firm to Back Trump-Themed Token With $20M Fund",
      "published_at": "2025-05-03T10:00:52Z",
      "slug": "Nasdaq-Listed-Logistics-Firm-to-Back-Trump-Themed-Token-With-20M-Fund",
      "currencies": [
        {
          "code": "BTC",
          "title": "Bitcoin",
          "slug": "bitcoin",
          "url": "https://cryptopanic.com/news/bitcoin/"
        },
        {
          "code": "ETH",
          "title": "Ethereum",
          "slug": "ethereum",
          "url": "https://cryptopanic.com/news/ethereum/"
        }
      ],
      "id": 21534375,
      "url": "https://cryptopanic.com/news/21534375/Nasdaq-Listed-Logistics-Firm-to-Back-Trump-Themed-Token-With-20M-Fund?mtm_campaign=API-OFA",
      "created_at": "2025-05-03T10:00:52Z",
      "votes": {
        "negative": 0,
        "positive": 0,
        "important": 0,
        "liked": 0,
        "disliked": 0,
        "lol": 0,
        "toxic": 0,
        "saved": 0,
        "comments": 0
      }
    },
    {
      "kind": "news",
      "domain": "coindoo.com",
      "source": {
        "title": "Coindoo.com",
        "region": "en",
        "domain": "coindoo.com",
        "path": null,
        "type": "feed",
        "url": "https://cryptopanic.com/news/external/3334323435382D3231353333313138/?mtm_campaign=API-OFA"
      },
      "title": "CryptoQuant Data Reveals: Binance Traders Go Short\u2014Is a Bitcoin Reversal on the Horizon?",
      "published_at": "2025-05-03T10:00:23Z",
      "slug": "CryptoQuant-Data-Reveals-Binance-Traders-Go-ShortIs-a-Bitcoin-Reversal-on-the-Horizon",
      "currencies": [
        {
          "code": "BTC",
          "title": "Bitcoin",
          "slug": "bitcoin",
          "url": "https://cryptopanic.com/news/bitcoin/"
        }
      ],
      "id": 21533118,
      "url": "https://cryptopanic.com/news/21533118/CryptoQuant-Data-Reveals-Binance-Traders-Go-ShortIs-a-Bitcoin-Reversal-on-the-Horizon?mtm_campaign=API-OFA",
      "created_at": "2025-05-03T10:00:23Z",
      "votes": {
        "negative": 0,
        "positive": 0,
        "important": 0,
        "liked": 0,
        "disliked": 0,
        "lol": 0,
        "toxic": 0,
        "saved": 0,
        "comments": 0
      }
    },
    {
      "kind": "news",
      "domain": "coinpedia.org",
      "source": {
        "title": "coinpedia",
        "region": "en",
        "domain": "coinpedia.org",
        "path": null,
        "type": "feed",
        "url": "https://cryptopanic.com/news/external/3334323435382D3231353333313035/?mtm_campaign=API-OFA"
      },
      "title": "Bitcoin Solaris vs Bitcoin: Mobile Mining App Eliminates Need for Expensive Hardware",
      "published_at": "2025-05-03T09:53:49Z",
      "slug": "Bitcoin-Solaris-vs-Bitcoin-Mobile-Mining-App-Eliminates-Need-for-Expensive-Hardware",
      "currencies": [
        {
          "code": "BTC",
          "title": "Bitcoin",
          "slug": "bitcoin",
          "url": "https://cryptopanic.com/news/bitcoin/"
        }
      ],
      "id": 21533105,
      "url": "https://cryptopanic.com/news/21533105/Bitcoin-Solaris-vs-Bitcoin-Mobile-Mining-App-Eliminates-Need-for-Expensive-Hardware?mtm_campaign=API-OFA",
      "created_at": "2025-05-03T09:53:49Z",
      "votes": {
        "negative": 0,
        "positive": 0,
        "important": 0,
        "liked": 0,
        "disliked": 0,
        "lol": 0,
        "toxic": 0,
        "saved": 0,
        "comments": 0
      }
    },
    {
      "kind": "news",
      "domain": "coingape.com",
      "source": {
        "title": "CoinGape",
        "region": "en",
        "domain": "coingape.com",
        "path": null,
        "type": "feed",
        "url": "https://cryptopanic.com/news/external/3334323435382D3231353333303936/?mtm_campaign=API-OFA"
      },
      "title": "Vitalik Buterin Reveals Plans to Revamp Ethereum; Will It Boost ETH Price?",
      "published_at": "2025-05-03T09:47:11Z",
      "slug": "Vitalik-Buterin-Reveals-Plans-to-Revamp-Ethereum-Will-It-Boost-ETH-Price",
      "currencies": [
        {
          "code": "BTC",
          "title": "Bitcoin",
          "slug": "bitcoin",
          "url": "https://cryptopanic.com/news/bitcoin/"
        },
        {
          "code": "ETH",
          "title": "Ethereum",
          "slug": "ethereum",
          "url": "https://cryptopanic.com/news/ethereum/"
        }
      ],
      "id": 21533096,
      "url": "https://cryptopanic.com/news/21533096/Vitalik-Buterin-Reveals-Plans-to-Revamp-Ethereum-Will-It-Boost-ETH-Price?mtm_campaign=API-OFA",
      "created_at": "2025-05-03T09:47:11Z",
      "votes": {
        "negative": 0,
        "positive": 0,
        "important": 0,
        "liked": 0,
        "disliked": 0,
        "lol": 0,
        "toxic": 0,
        "saved": 0,
        "comments": 0
      }
    }
  ]
}